[gd_scene load_steps=4 format=3 uid="uid://b22427revw18k"]

[ext_resource type="PackedScene" uid="uid://b7xdpo7161iya" path="res://addons/rom64edit/scenes/categories/Project.tscn" id="1_em8pi"]
[ext_resource type="Script" path="res://addons/rom64edit/src/interface.gd" id="1_jno58"]
[ext_resource type="PackedScene" uid="uid://dt1skqf7qehqn" path="res://addons/rom64edit/scenes/categories/Plugins.tscn" id="2_p6nsc"]

[node name="Rom64Edit" type="ScrollContainer"]
anchor_right = 1.0
anchor_bottom = 1.0
grow_horizontal = 2
grow_vertical = 2
size_flags_horizontal = 3
size_flags_vertical = 3
script = ExtResource( "1_jno58" )

[node name="Align" type="VBoxContainer" parent="."]
offset_right = 1024.0
offset_bottom = 600.0
grow_horizontal = 2
grow_vertical = 2
size_flags_horizontal = 3
size_flags_vertical = 3
metadata/_edit_layout_mode = 1

[node name="Project" parent="Align" instance=ExtResource( "1_em8pi" )]
anchor_right = 0.0
offset_right = 1024.0

[node name="Plugins" parent="Align" instance=ExtResource( "2_p6nsc" )]
anchor_right = 0.0
anchor_bottom = 0.0
offset_top = 59.0
offset_right = 1024.0
offset_bottom = 600.0
size_flags_vertical = 3
